[
  {
    "id": "ee84c495-ed5b-4bc3-83bd-53593d40d087",
    "name": "T2",
    "planName": "PLAN_1",
    "flowType": "CHILD",
    "childFlowUuid": null,
    "updatedBy": "TEST_ME"
  },
  {
    "id": "b6df7319-ded8-4ae0-a9c4-3bc9f6502cec",
    "name": "T1",
    "planName": "PLAN_1",
    "flowType": "PARENT",
    "childFlowUuid": "ee84c495-ed5b-4bc3-83bd-53593d40d087",
    "updatedBy": "TEST_ME"
  },
  {
    "id": "ff246733-8e09-4026-af5c-e324c2549ae7",
    "name": "T6",
    "planName": "PLAN_1",
    "flowType": "CHILD",
    "childFlowUuid": null,
    "updatedBy": "TEST_ME"
  },
  {
    "id": "975ee134-d054-44eb-96ad-ac355c98de4b",
    "name": "T3",
    "planName": "PLAN_2",
    "flowType": "PARENT",
    "childFlowUuid": null,
    "updatedBy": "TEST_ME1"
  },
  {
    "id": "2e190e43-7724-45ac-a5aa-2cb2d59e5453",
    "name": "T4",
    "planName": "PLAN_2",
    "flowType": "PARENT",
    "childFlowUuid": null,
    "updatedBy": "TEST_ME"
  },
  {
    "id": "3252f4cb-a1bc-45e3-88de-170c9d86f10c",
    "name": "T5",
    "planName": "PLAN_1",
    "flowType": "PARENT",
    "childFlowUuid": "ff246733-8e09-4026-af5c-e324c2549ae7",
    "updatedBy": "TEST_ME"
  }
]